{
    "name": "14",
    "blocks": [
        [11, 15, 11, 30],
        [11, 15, 36, 40],
        [11, 15, 46, 50],
        [16, 25, 11, 15],
        [26, 35, 36, 40],
        [36, 40,  1,  5],
        [36, 40, 11, 15],
        [36, 40, 21, 40]
    ]
}
